…
``` r
nyc_airbnb %>% 
  count(neighbourhood)
```

    ## # A tibble: 217 x 2
    ##    neighbourhood                  n
    ##    <chr>                      <int>
    ##  1 Allerton                      23
    ##  2 Arden Heights                  6
    ##  3 Arrochar                      14
    ##  4 Arverne                       71
    ##  5 Astoria                      755
    ##  6 Bath Beach                    11
    ##  7 Battery Park City             65
    ##  8 Bay Ridge                     91
    ##  9 Bay Terrace                    5
    ## 10 Bay Terrace, Staten Island     1
    ## # ... with 207 more rows
…
